top/run/wave_enhanced.vcd
$version Generated by VerilatedVcd $end
$timescale 1ps $end
 $scope module TOP $end
  $scope module soc_tb_enhanced $end
   $var real 64 1 OSC_CLK_25M_PEROID $end
   $var wire 1 . ext_rst_n_i_pad $end
   $var wire 1 / osc_clk_25m_i_pad $end
   $var wire 1 3 old_ip_spi_flash_clk_pad $end
   $var wire 2 4 old_ip_spi_flash_cs_pad [1:0] $end
   $var wire 1 5 old_ip_spi_flash_mosi_pad $end
   $var wire 1 5 old_ip_spi_flash_miso_pad $end
   $var wire 1 6 old_ip_uart_rx_pad $end
   $var wire 1 7 old_ip_uart_tx_pad $end
   $var wire 1 / r_osc_clk_25m $end
   $var wire 1 . r_ext_rst_n $end
   $var wire 3 0 r_ip_sel [2:0] $end
   $var wire 32 # test_counter [31:0] $end
   $var wire 8 $ state_machine [7:0] $end
   $var wire 16 % data_bus [15:0] $end
   $var wire 1 & enable_signal $end
   $var wire 1 ' ready_signal $end
   $var wire 1 ( valid_signal $end
   $var wire 4 ) control_flags [3:0] $end
   $var wire 8 * status_reg [7:0] $end
   $var wire 1 + clock_div2 $end
   $var wire 1 , clock_div4 $end
   $var wire 1 - clock_div8 $end
   $scope module u_old_ip_spi_N25Qxxx $end
    $var wire 1 8 S $end
    $var wire 1 3 C_ $end
    $var wire 1 5 HOLD_DQ3 $end
    $var wire 1 5 DQ0 $end
    $var wire 1 5 DQ1 $end
    $var wire 1 5 Vcc $end
    $var wire 1 5 Vpp_W_DQ2 $end
   $upscope $end
  $upscope $end
 $upscope $end
$enddefinitions $end


#0
b00000000000000000000000000000000 #
b00000000 $
b0000000000000000 %
0&
0'
0(
b0000 )
b00000000 *
0+
0,
0-
0.
0/
b001 0
r40 1
03
b00 4
05
06
07
08
#199999000
40000
0/
#60000
1/
#80000
0/
#100000
1/
#120000
0/
#140000
1/
#160000
0/
#180000
1/
#200000
0/
#220000
1/
#240000
0/
#260000
1/
#280000
0/
#300000
1/
#320000
0/
#340000
1/
#360000
0/
#380000
1/
#381000
1.
#400000
0/
#420000
b00000000000000000000000000000001 #
1+
1/
#440000
0/
#460000
b00000000000000000000000000000010 #
0+
1,
1/
#480000
0/
#500000
b00000000000000000000000000000011 #
1+
1/
#520000
0/
#540000
b00000000000000000000000000000100 #
0+
0,
1-
1/
#560000
0/
#580000
b00000000000000000000000000000101 #
1+
1/
#600000
0/
#620000
b00000000000000000000000000000110 #
0+
1,
1/
#640000
0/
#660000
b00000000000000000000000000000111 #
1+
1/
#680000
0/
#700000
b00000000000000000000000000001000 #
0+
0,
0-
1/
#720000
0/
#740000
b00000000000000000000000000001001 #
1+
1/
#760000
0/
#780000
b00000000000000000000000000001010 #
0+
1,
1/
#800000
0/
#820000
b00000000000000000000000000001011 #
1+
1/
#840000
0/
#860000
b00000000000000000000000000001100 #
0+
0,
1-
1/
#880000
0/
#900000
b00000000000000000000000000001101 #
1+
1/
#920000
0/
#940000
b00000000000000000000000000001110 #
0+
1,
1/
#960000
0/
#980000
b00000000000000000000000000001111 #
1+
1/
#1000000
0/
#1020000
b00000000000000000000000000010000 #
0+
0,
0-
1/
#1040000
0/
#1060000
b00000000000000000000000000010001 #
1+
1/
#1080000
0/
#1100000
b00000000000000000000000000010010 #
0+
1,
1/
#1120000
0/
#1140000
b00000000000000000000000000010011 #
1+
1/
#1160000
0/
#1180000
b00000000000000000000000000010100 #
0+
0,
1-
1/
#1200000
0/
#1220000
b00000000000000000000000000010101 #
1+
1/
#1240000
0/
#1260000
b00000000000000000000000000010110 #
0+
1,
1/
#1280000
0/
#1300000
b00000000000000000000000000010111 #
1+
1/
#1320000
0/
#1340000
b00000000000000000000000000011000 #
0+
0,
0-
1/
#1360000
0/
#1380000
b00000000000000000000000000011001 #
1+
1/
#1400000
0/
#1420000
b00000000000000000000000000011010 #
0+
1,
1/
#1440000
0/
#1460000
b00000000000000000000000000011011 #
1+
1/
#1480000
0/
#1500000
b00000000000000000000000000011100 #
0+
0,
1-
1/
#1520000
0/
#1540000
b00000000000000000000000000011101 #
1+
1/
#1560000
0/
#1580000
b00000000000000000000000000011110 #
0+
1,
1/
#1600000
0/
#1620000
b00000000000000000000000000011111 #
1+
1/
#1640000
0/
#1660000
b00000000000000000000000000100000 #
0+
0,
0-
1/
#1680000
0/
#1700000
b00000000000000000000000000100001 #
1+
1/
#1720000
0/
#1740000
b00000000000000000000000000100010 #
0+
1,
1/
#1760000
0/
#1780000
b00000000000000000000000000100011 #
1+
1/
#1800000
0/
#1820000
b00000000000000000000000000100100 #
0+
0,
1-
1/
#1840000
0/
#1860000
b00000000000000000000000000100101 #
1+
1/
#1880000
0/
#1900000
b00000000000000000000000000100110 #
0+
1,
1/
#1920000
0/
#1940000
b00000000000000000000000000100111 #
1+
1/
#1960000
0/
#1980000
b00000000000000000000000000101000 #
0+
0,
0-
1/
#2000000
0/
#2020000
b00000000000000000000000000101001 #
1+
1/
#2040000
0/
#2060000
b00000000000000000000000000101010 #
0+
1,
1/
#2080000
0/
#2100000
b00000000000000000000000000101011 #
1+
1/
#2120000
0/
#2140000
b00000000000000000000000000101100 #
0+
0,
1-
1/
#2160000
0/
#2180000
b00000000000000000000000000101101 #
1+
1/
#2200000
0/
#2220000
b00000000000000000000000000101110 #
0+
1,
1/
#2240000
0/
#2260000
b00000000000000000000000000101111 #
1+
1/
#2280000
0/
#2300000
b00000000000000000000000000110000 #
0+
0,
0-
1/
#2320000
0/
#2340000
b00000000000000000000000000110001 #
1+
1/
#2360000
0/
#2380000
b00000000000000000000000000110010 #
0+
1,
1/
#2400000
0/
#2420000
b00000000000000000000000000110011 #
1+
1/
#2440000
0/
#2460000
b00000000000000000000000000110100 #
0+
0,
1-
1/
#2480000
0/
#2500000
b00000000000000000000000000110101 #
1+
1/
#2520000
0/
#2540000
b00000000000000000000000000110110 #
0+
1,
1/
#2560000
0/
#2580000
b00000000000000000000000000110111 #
1+
1/
#2600000
0/
#2620000
b00000000000000000000000000111000 #
0+
0,
0-
1/
#2640000
0/
#2660000
b00000000000000000000000000111001 #
1+
1/
#2680000
0/
#2700000
b00000000000000000000000000111010 #
0+
1,
1/
#2720000
0/
#2740000
b00000000000000000000000000111011 #
1+
1/
#2760000
0/
#2780000
b00000000000000000000000000111100 #
0+
0,
1-
1/
#2800000
0/
#2820000
b00000000000000000000000000111101 #
1+
1/
#2840000
0/
#2860000
b00000000000000000000000000111110 #
0+
1,
1/
#2880000
0/
#2900000
b00000000000000000000000000111111 #
1+
1/
#2920000
0/
#2940000
b00000000000000000000000001000000 #
0+
0,
0-
1/
#2960000
0/
#2980000
b00000000000000000000000001000001 #
1+
1/
#3000000
0/
#3020000
b00000000000000000000000001000010 #
0+
1,
1/
#3040000
0/
#3060000
b00000000000000000000000001000011 #
1+
1/
#3080000
0/
#3100000
b00000000000000000000000001000100 #
0+
0,
1-
1/
#3120000
0/
#3140000
b00000000000000000000000001000101 #
1+
1/
#3160000
0/
#3180000
b00000000000000000000000001000110 #
0+
1,
1/
#3200000
0/
#3220000
b00000000000000000000000001000111 #
1+
1/
#3240000
0/
#3260000
b00000000000000000000000001001000 #
0+
0,
0-
1/
#3280000
0/
#3300000
b00000000000000000000000001001001 #
1+
1/
#3320000
0/
#3340000
b00000000000000000000000001001010 #
0+
1,
1/
#3360000
0/
#3380000
b00000000000000000000000001001011 #
1+
1/
#3400000
0/
#3420000
b00000000000000000000000001001100 #
0+
0,
1-
1/
#3440000
0/
#3460000
b00000000000000000000000001001101 #
1+
1/
#3480000
0/
#3500000
b00000000000000000000000001001110 #
0+
1,
1/
#3520000
0/
#3540000
b00000000000000000000000001001111 #
1+
1/
#3560000
0/
#3580000
b00000000000000000000000001010000 #
0+
0,
0-
1/
#3600000
0/
#3620000
b00000000000000000000000001010001 #
1+
1/
#3640000
0/
#3660000
b00000000000000000000000001010010 #
0+
1,
1/
#3680000
0/
#3700000
b00000000000000000000000001010011 #
1+
1/
#3720000
0/
#3740000
b00000000000000000000000001010100 #
0+
0,
1-
1/
#3760000
0/
#3780000
b00000000000000000000000001010101 #
1+
1/
#3800000
0/
#3820000
b00000000000000000000000001010110 #
0+
1,
1/
#3840000
0/
#3860000
b00000000000000000000000001010111 #
1+
1/
#3880000
0/
#3900000
b00000000000000000000000001011000 #
0+
0,
0-
1/
#3920000
0/
#3940000
b00000000000000000000000001011001 #
1+
1/
#3960000
0/
#3980000
b00000000000000000000000001011010 #
0+
1,
1/
#4000000
0/
#4020000
b00000000000000000000000001011011 #
1+
1/
#4040000
0/
#4060000
b00000000000000000000000001011100 #
0+
0,
1-
1/
#4080000
0/
#4100000
b00000000000000000000000001011101 #
1+
1/
#4120000
0/
#4140000
b00000000000000000000000001011110 #
0+
1,
1/
#4160000
0/
#4180000
b00000000000000000000000001011111 #
1+
1/
#4200000
0/
#4220000
b00000000000000000000000001100000 #
0+
0,
0-
1/
#4240000
0/
#4260000
b00000000000000000000000001100001 #
1+
1/
#4280000
0/
#4300000
b00000000000000000000000001100010 #
0+
1,
1/
#4320000
0/
#4340000
b00000000000000000000000001100011 #
1+
1/
#4360000
0/
#4380000
b00000000000000000000000001100100 #
0+
0,
1-
1/
#4400000
0/
#4420000
b00000000000000000000000001100101 #
1+
1/
#4440000
0/
#4460000
b00000000000000000000000001100110 #
0+
1,
1/
#4480000
0/
#4500000
b00000000000000000000000001100111 #
1+
1/
#4520000
0/
#4540000
b00000000000000000000000001101000 #
0+
0,
0-
1/
#4560000
0/
#4580000
b00000000000000000000000001101001 #
1+
1/
#4600000
0/
#4620000
b00000000000000000000000001101010 #
0+
1,
1/
#4640000
0/
#4660000
b00000000000000000000000001101011 #
1+
1/
#4680000
0/
#4700000
b00000000000000000000000001101100 #
0+
0,
1-
1/
#4720000
0/
#4740000
b00000000000000000000000001101101 #
1+
1/
#4760000
0/
#4780000
b00000000000000000000000001101110 #
0+
1,
1/
#4800000
0/
#4820000
b00000000000000000000000001101111 #
1+
1/
#4840000
0/
#4860000
b00000000000000000000000001110000 #
0+
0,
0-
1/
#4880000
0/
#4900000
b00000000000000000000000001110001 #
1+
1/
#4920000
0/
#4940000
b00000000000000000000000001110010 #
0+
1,
1/
#4960000
0/
#4980000
b00000000000000000000000001110011 #
1+
1/
#5000000
0/
#5020000
b00000000000000000000000001110100 #
0+
0,
1-
1/
#5040000
0/
#5060000
b00000000000000000000000001110101 #
1+
1/
#5080000
0/
#5100000
b00000000000000000000000001110110 #
0+
1,
1/
#5120000
0/
#5140000
b00000000000000000000000001110111 #
1+
1/
#5160000
0/
#5180000
b00000000000000000000000001111000 #
0+
0,
0-
1/
#5200000
0/
#5220000
b00000000000000000000000001111001 #
1+
1/
#5240000
0/
#5260000
b00000000000000000000000001111010 #
0+
1,
1/
#5280000
0/
#5300000
b00000000000000000000000001111011 #
1+
1/
#5320000
0/
#5340000
b00000000000000000000000001111100 #
0+
0,
1-
1/
#5360000
0/
#5380000
b00000000000000000000000001111101 #
1+
1/
#5400000
0/
#5420000
b00000000000000000000000001111110 #
0+
1,
1/
#5440000
0/
#5460000
b00000000000000000000000001111111 #
1+
1/
#5480000
0/
#5500000
b00000000000000000000000010000000 #
0+
0,
0-
1/
#5520000
0/
#5540000
b00000000000000000000000010000001 #
1+
1/
#5560000
0/
#5580000
b00000000000000000000000010000010 #
0+
1,
1/
#5600000
0/
#5620000
b00000000000000000000000010000011 #
1+
1/
#5640000
0/
#5660000
b00000000000000000000000010000100 #
0+
0,
1-
1/
#5680000
0/
#5700000
b00000000000000000000000010000101 #
1+
1/
#5720000
0/
#5740000
b00000000000000000000000010000110 #
0+
1,
1/
#5760000
0/
#5780000
b00000000000000000000000010000111 #
1+
1/
#5800000
0/
#5820000
b00000000000000000000000010001000 #
0+
0,
0-
1/
#5840000
0/
#5860000
b00000000000000000000000010001001 #
1+
1/
#5880000
0/
#5900000
b00000000000000000000000010001010 #
0+
1,
1/
#5920000
0/
#5940000
b00000000000000000000000010001011 #
1+
1/
#5960000
0/
#5980000
b00000000000000000000000010001100 #
0+
0,
1-
1/
#6000000
0/
#6020000
b00000000000000000000000010001101 #
1+
1/
#6040000
0/
#6060000
b00000000000000000000000010001110 #
0+
1,
1/
#6080000
0/
#6100000
b00000000000000000000000010001111 #
1+
1/
#6120000
0/
#6140000
b00000000000000000000000010010000 #
0+
0,
0-
1/
#6160000
0/
#6180000
b00000000000000000000000010010001 #
1+
1/
#6200000
0/
#6220000
b00000000000000000000000010010010 #
0+
1,
1/
#6240000
0/
#6260000
b00000000000000000000000010010011 #
1+
1/
#6280000
0/
#6300000
b00000000000000000000000010010100 #
0+
0,
1-
1/
#6320000
0/
#6340000
b00000000000000000000000010010101 #
1+
1/
#6360000
0/
#6380000
b00000000000000000000000010010110 #
0+
1,
1/
#6400000
0/
#6420000
b00000000000000000000000010010111 #
1+
1/
#6440000
0/
#6460000
b00000000000000000000000010011000 #
0+
0,
0-
1/
#6480000
0/
#6500000
b00000000000000000000000010011001 #
1+
1/
#6520000
0/
#6540000
b00000000000000000000000010011010 #
0+
1,
1/
#6560000
0/
#6580000
b00000000000000000000000010011011 #
1+
1/
#6600000
0/
#6620000
b00000000000000000000000010011100 #
0+
0,
1-
1/
#6640000
0/
#6660000
b00000000000000000000000010011101 #
1+
1/
#6680000
0/
#6700000
b00000000000000000000000010011110 #
0+
1,
1/
#6720000
0/
#6740000
b00000000000000000000000010011111 #
1+
1/
#6760000
0/
#6780000
b00000000000000000000000010100000 #
0+
0,
0-
1/
#6800000
0/
#6820000
b00000000000000000000000010100001 #
1+
1/
#6840000
0/
#6860000
b00000000000000000000000010100010 #
0+
1,
1/
#6880000
0/
#6900000
b00000000000000000000000010100011 #
1+
1/
#6920000
0/
#6940000
b00000000000000000000000010100100 #
0+
0,
1-
1/
#6960000
0/
#6980000
b00000000000000000000000010100101 #
1+
1/
#7000000
0/
#7020000
b00000000000000000000000010100110 #
0+
1,
1/
#7040000
0/
#7060000
b00000000000000000000000010100111 #
1+
1/
#7080000
0/
#7100000
b00000000000000000000000010101000 #
0+
0,
0-
1/
#7120000
0/
#7140000
b00000000000000000000000010101001 #
1+
1/
#7160000
0/
#7180000
b00000000000000000000000010101010 #
0+
1,
1/
#7200000
0/
#7220000
b00000000000000000000000010101011 #
1+
1/
#7240000
0/
#7260000
b00000000000000000000000010101100 #
0+
0,
1-
1/
#7280000
0/
#7300000
b00000000000000000000000010101101 #
1+
1/
#7320000
0/
#7340000
b00000000000000000000000010101110 #
0+
1,
1/
#7360000
0/
#7380000
b00000000000000000000000010101111 #
1+
1/
#7400000
0/
#7420000
b00000000000000000000000010110000 #
0+
0,
0-
1/
#7440000
0/
#7460000
b00000000000000000000000010110001 #
1+
1/
#7480000
0/
#7500000
b00000000000000000000000010110010 #
0+
1,
1/
#7520000
0/
#7540000
b00000000000000000000000010110011 #
1+
1/
#7560000
0/
#7580000
b00000000000000000000000010110100 #
0+
0,
1-
1/
#7600000
0/
#7620000
b00000000000000000000000010110101 #
1+
1/
#7640000
0/
#7660000
b00000000000000000000000010110110 #
0+
1,
1/
#7680000
0/
#7700000
b00000000000000000000000010110111 #
1+
1/
#7720000
0/
#7740000
b00000000000000000000000010111000 #
0+
0,
0-
1/
#7760000
0/
#7780000
b00000000000000000000000010111001 #
1+
1/
#7800000
0/
#7820000
b00000000000000000000000010111010 #
0+
1,
1/
#7840000
0/
#7860000
b00000000000000000000000010111011 #
1+
1/
#7880000
0/
#7900000
b00000000000000000000000010111100 #
0+
0,
1-
1/
#7920000
0/
#7940000
b00000000000000000000000010111101 #
1+
1/
#7960000
0/
#7980000
b00000000000000000000000010111110 #
0+
1,
1/
#8000000
0/
#8020000
b00000000000000000000000010111111 #
1+
1/
#8040000
0/
#8060000
b00000000000000000000000011000000 #
0+
0,
0-
1/
#8080000
0/
#8100000
b00000000000000000000000011000001 #
1+
1/
#8120000
0/
#8140000
b00000000000000000000000011000010 #
0+
1,
1/
#8160000
0/
#8180000
b00000000000000000000000011000011 #
1+
1/
#8200000
0/
#8220000
b00000000000000000000000011000100 #
0+
0,
1-
1/
#8240000
0/
#8260000
b00000000000000000000000011000101 #
1+
1/
#8280000
0/
#8300000
b00000000000000000000000011000110 #
0+
1,
1/
#8320000
0/
#8340000
b00000000000000000000000011000111 #
1+
1/
#8360000
0/
#8380000
b00000000000000000000000011001000 #
0+
0,
0-
1/
#8400000
0/
#8420000
b00000000000000000000000011001001 #
1+
1/
#8440000
0/
#8460000
b00000000000000000000000011001010 #
0+
1,
1/
#8480000
0/
#8500000
b00000000000000000000000011001011 #
1+
1/
#8520000
0/
#8540000
b00000000000000000000000011001100 #
0+
0,
1-
1/
#8560000
0/
#8580000
b00000000000000000000000011001101 #
1+
1/
#8600000
0/
#8620000
b00000000000000000000000011001110 #
0+
1,
1/
#8640000
0/
#8660000
b00000000000000000000000011001111 #
1+
1/
#8680000
0/
#8700000
b00000000000000000000000011010000 #
0+
0,
0-
1/
#8720000
0/
#8740000
b00000000000000000000000011010001 #
1+
1/
#8760000
0/
#8780000
b00000000000000000000000011010010 #
0+
1,
1/
#8800000
0/
#8820000
b00000000000000000000000011010011 #
1+
1/
#8840000
0/
#8860000
b00000000000000000000000011010100 #
0+
0,
1-
1/
#8880000
0/
#8900000
b00000000000000000000000011010101 #
1+
1/
#8920000
0/
#8940000
b00000000000000000000000011010110 #
0+
1,
1/
#8960000
0/
#8980000
b00000000000000000000000011010111 #
1+
1/
#9000000
0/
#9020000
b00000000000000000000000011011000 #
0+
0,
0-
1/
#9040000
0/
#9060000
b00000000000000000000000011011001 #
1+
1/
#9080000
0/
#9100000
b00000000000000000000000011011010 #
0+
1,
1/
#9120000
0/
#9140000
b00000000000000000000000011011011 #
1+
1/
#9160000
0/
#9180000
b00000000000000000000000011011100 #
0+
0,
1-
1/
#9200000
0/
#9220000
b00000000000000000000000011011101 #
1+
1/
#9240000
0/
#9260000
b00000000000000000000000011011110 #
0+
1,
1/
#9280000
0/
#9300000
b00000000000000000000000011011111 #
1+
1/
#9320000
0/
#9340000
b00000000000000000000000011100000 #
0+
0,
0-
1/
#9360000
0/
#9380000
b00000000000000000000000011100001 #
1+
1/
#9400000
0/
#9420000
b00000000000000000000000011100010 #
0+
1,
1/
#9440000
0/
#9460000
b00000000000000000000000011100011 #
1+
1/
#9480000
0/
#9500000
b00000000000000000000000011100100 #
0+
0,
1-
1/
#9520000
0/
#9540000
b00000000000000000000000011100101 #
1+
1/
#9560000
0/
#9580000
b00000000000000000000000011100110 #
0+
1,
1/
#9600000
0/
#9620000
b00000000000000000000000011100111 #
1+
1/
#9640000
0/
#9660000
b00000000000000000000000011101000 #
0+
0,
0-
1/
#9680000
0/
#9700000
b00000000000000000000000011101001 #
1+
1/
#9720000
0/
#9740000
b00000000000000000000000011101010 #
0+
1,
1/
#9760000
0/
#9780000
b00000000000000000000000011101011 #
1+
1/
#9800000
0/
#9820000
b00000000000000000000000011101100 #
0+
0,
1-
1/
#9840000
0/
#9860000
b00000000000000000000000011101101 #
1+
1/
#9880000
0/
#9900000
b00000000000000000000000011101110 #
0+
1,
1/
#9920000
0/
#9940000
b00000000000000000000000011101111 #
1+
1/
#9960000
0/
#9980000
b00000000000000000000000011110000 #
0+
0,
0-
1/
#10000000
0/
#10020000
b00000000000000000000000011110001 #
1+
1/
#10040000
0/
#10060000
b00000000000000000000000011110010 #
0+
1,
1/
#10080000
0/
#10100000
b00000000000000000000000011110011 #
1+
1/
#10120000
0/
#10140000
b00000000000000000000000011110100 #
0+
0,
1-
1/
#10160000
0/
#10180000
b00000000000000000000000011110101 #
1+
1/
#10200000
0/
#10220000
b00000000000000000000000011110110 #
0+
1,
1/
#10240000
0/
#10260000
b00000000000000000000000011110111 #
1+
1/
#10280000
0/
#10300000
b00000000000000000000000011111000 #
0+
0,
0-
1/
#10320000
0/
#10340000
b00000000000000000000000011111001 #
1+
1/
#10360000
0/
#10380000
b00000000000000000000000011111010 #
0+
1,
1/
#10400000
0/
#10420000
b00000000000000000000000011111011 #
1+
1/
#10440000
0/
#10460000
b00000000000000000000000011111100 #
0+
0,
1-
1/
#10480000
0/
#10500000
b00000000000000000000000011111101 #
1+
1/
#10520000
0/
#10540000
b00000000000000000000000011111110 #
0+
1,
1/
#10560000
0/
#10580000
b00000000000000000000000011111111 #
1+
1/
#10600000
0/
#10620000
b00000000000000000000000100000000 #
b00000001 $
1&
0+
0,
0-
1/
#10640000
0/
#10660000
b00000000000000000000000100000001 #
b0000000000000001 %
1+
1/
#10680000
0/
#10700000
b00000000000000000000000100000010 #
b0000000000000010 %
1'
0+
1,
1/
#10720000
0/
#10740000
b00000000000000000000000100000011 #
b0000000000000011 %
0'
1(
1+
1/
#10760000
0/
#10780000
b00000000000000000000000100000100 #
b0000000000000100 %
1'
0+
0,
1-
1/
#10800000
0/
#10820000
b00000000000000000000000100000101 #
b0000000000000101 %
0'
0(
1+
1/
#10840000
0/
#10860000
b00000000000000000000000100000110 #
b0000000000000110 %
1'
0+
1,
1/
#10880000
0/
#10900000
b00000000000000000000000100000111 #
b0000000000000111 %
0'
1(
1+
1/
#10920000
0/
#10940000
b00000000000000000000000100001000 #
b0000000000001000 %
1'
0+
0,
0-
1/
#10960000
0/
#10980000
b00000000000000000000000100001001 #
b0000000000001001 %
0'
0(
1+
1/
#11000000
0/
#11020000
b00000000000000000000000100001010 #
b0000000000001010 %
1'
0+
1,
1/
#11040000
0/
#11060000
b00000000000000000000000100001011 #
b0000000000001011 %
0'
1(
1+
1/
#11080000
0/
#11100000
b00000000000000000000000100001100 #
b0000000000001100 %
1'
0+
0,
1-
1/
#11120000
0/
#11140000
b00000000000000000000000100001101 #
b0000000000001101 %
0'
0(
1+
1/
#11160000
0/
#11180000
b00000000000000000000000100001110 #
b0000000000001110 %
1'
0+
1,
1/
#11200000
0/
#11220000
b00000000000000000000000100001111 #
b0000000000001111 %
0'
1(
1+
1/
#11240000
0/
#11260000
b00000000000000000000000100010000 #
b0000000000010000 %
1'
0+
0,
0-
1/
#11280000
0/
#11300000
b00000000000000000000000100010001 #
b0000000000010001 %
0'
0(
1+
1/
#11320000
0/
#11340000
b00000000000000000000000100010010 #
b0000000000010010 %
1'
0+
1,
1/
#11360000
0/
#11380000
b00000000000000000000000100010011 #
b0000000000010011 %
0'
1(
1+
1/
#11400000
0/
#11420000
b00000000000000000000000100010100 #
b0000000000010100 %
1'
0+
0,
1-
1/
#11440000
0/
#11460000
b00000000000000000000000100010101 #
b0000000000010101 %
0'
0(
1+
1/
#11480000
0/
#11500000
b00000000000000000000000100010110 #
b0000000000010110 %
1'
0+
1,
1/
#11520000
0/
#11540000
b00000000000000000000000100010111 #
b0000000000010111 %
0'
1(
1+
1/
#11560000
0/
#11580000
b00000000000000000000000100011000 #
b0000000000011000 %
1'
0+
0,
0-
1/
#11600000
0/
#11620000
b00000000000000000000000100011001 #
b0000000000011001 %
0'
0(
1+
1/
#11640000
0/
#11660000
b00000000000000000000000100011010 #
b0000000000011010 %
1'
0+
1,
1/
#11680000
0/
#11700000
b00000000000000000000000100011011 #
b0000000000011011 %
0'
1(
1+
1/
#11720000
0/
#11740000
b00000000000000000000000100011100 #
b0000000000011100 %
1'
0+
0,
1-
1/
#11760000
0/
#11780000
b00000000000000000000000100011101 #
b0000000000011101 %
0'
0(
1+
1/
#11800000
0/
#11820000
b00000000000000000000000100011110 #
b0000000000011110 %
1'
0+
1,
1/
#11840000
0/
#11860000
b00000000000000000000000100011111 #
b0000000000011111 %
0'
1(
1+
1/
#11880000
0/
#11900000
b00000000000000000000000100100000 #
b0000000000100000 %
1'
0+
0,
0-
1/
#11920000
0/
#11940000
b00000000000000000000000100100001 #
b0000000000100001 %
0'
0(
1+
1/
#11960000
0/
#11980000
b00000000000000000000000100100010 #
b0000000000100010 %
1'
0+
1,
1/
#12000000
0/
#12020000
b00000000000000000000000100100011 #
b0000000000100011 %
0'
1(
1+
1/
#12040000
0/
#12060000
b00000000000000000000000100100100 #
b0000000000100100 %
1'
0+
0,
1-
1/
#12080000
0/
#12100000
b00000000000000000000000100100101 #
b0000000000100101 %
0'
0(
1+
1/
#12120000
0/
#12140000
b00000000000000000000000100100110 #
b0000000000100110 %
1'
0+
1,
1/
#12160000
0/
#12180000
b00000000000000000000000100100111 #
b0000000000100111 %
0'
1(
1+
1/
#12200000
0/
#12220000
b00000000000000000000000100101000 #
b0000000000101000 %
1'
0+
0,
0-
1/
#12240000
0/
#12260000
b00000000000000000000000100101001 #
b0000000000101001 %
0'
0(
1+
1/
#12280000
0/
#12300000
b00000000000000000000000100101010 #
b0000000000101010 %
1'
0+
1,
1/
#12320000
0/
#12340000
b00000000000000000000000100101011 #
b0000000000101011 %
0'
1(
1+
1/
#12360000
0/
#12380000
b00000000000000000000000100101100 #
b0000000000101100 %
1'
0+
0,
1-
1/
#12400000
0/
#12420000
b00000000000000000000000100101101 #
b0000000000101101 %
0'
0(
1+
1/
#12440000
0/
#12460000
b00000000000000000000000100101110 #
b0000000000101110 %
1'
0+
1,
1/
#12480000
0/
#12500000
b00000000000000000000000100101111 #
b0000000000101111 %
0'
1(
1+
1/
#12520000
0/
#12540000
b00000000000000000000000100110000 #
b0000000000110000 %
1'
0+
0,
0-
1/
#12560000
0/
#12580000
b00000000000000000000000100110001 #
b0000000000110001 %
0'
0(
1+
1/
#12600000
0/
#12620000
b00000000000000000000000100110010 #
b0000000000110010 %
1'
0+
1,
1/
#12640000
0/
#12660000
b00000000000000000000000100110011 #
b0000000000110011 %
0'
1(
1+
1/
#12680000
0/
#12700000
b00000000000000000000000100110100 #
b0000000000110100 %
1'
0+
0,
1-
1/
#12720000
0/
#12740000
b00000000000000000000000100110101 #
b0000000000110101 %
0'
0(
1+
1/
#12760000
0/
#12780000
b00000000000000000000000100110110 #
b0000000000110110 %
1'
0+
1,
1/
#12800000
0/
#12820000
b00000000000000000000000100110111 #
b0000000000110111 %
0'
1(
1+
1/
#12840000
0/
#12860000
b00000000000000000000000100111000 #
b0000000000111000 %
1'
0+
0,
0-
1/
#12880000
0/
#12900000
b00000000000000000000000100111001 #
b0000000000111001 %
0'
0(
1+
1/
#12920000
0/
#12940000
b00000000000000000000000100111010 #
b0000000000111010 %
1'
0+
1,
1/
#12960000
0/
#12980000
b00000000000000000000000100111011 #
b0000000000111011 %
0'
1(
1+
1/
#13000000
0/
#13020000
b00000000000000000000000100111100 #
b0000000000111100 %
1'
0+
0,
1-
1/
#13040000
0/
#13060000
b00000000000000000000000100111101 #
b0000000000111101 %
0'
0(
1+
1/
#13080000
0/
#13100000
b00000000000000000000000100111110 #
b0000000000111110 %
1'
0+
1,
1/
#13120000
0/
#13140000
b00000000000000000000000100111111 #
b0000000000111111 %
0'
1(
1+
1/
#13160000
0/
#13180000
b00000000000000000000000101000000 #
b0000000001000000 %
1'
0+
0,
0-
1/
#13200000
0/
#13220000
b00000000000000000000000101000001 #
b0000000001000001 %
0'
0(
1+
1/
#13240000
0/
#13260000
b00000000000000000000000101000010 #
b0000000001000010 %
1'
0+
1,
1/
#13280000
0/
#13300000
b00000000000000000000000101000011 #
b0000000001000011 %
0'
1(
1+
1/
#13320000
0/
#13340000
b00000000000000000000000101000100 #
b0000000001000100 %
1'
0+
0,
1-
1/
#13360000
0/
#13380000
b00000000000000000000000101000101 #
b0000000001000101 %
0'
0(
1+
1/
#13400000
0/
#13420000
b00000000000000000000000101000110 #
b0000000001000110 %
1'
0+
1,
1/
#13440000
0/
#13460000
b00000000000000000000000101000111 #
b0000000001000111 %
0'
1(
1+
1/
#13480000
0/
#13500000
b00000000000000000000000101001000 #
b0000000001001000 %
1'
0+
0,
0-
1/
#13520000
0/
#13540000
b00000000000000000000000101001001 #
b0000000001001001 %
0'
0(
1+
1/
#13560000
0/
#13580000
b00000000000000000000000101001010 #
b0000000001001010 %
1'
0+
1,
1/
#13600000
0/
#13620000
b00000000000000000000000101001011 #
b0000000001001011 %
0'
1(
1+
1/
#13640000
0/
#13660000
b00000000000000000000000101001100 #
b0000000001001100 %
1'
0+
0,
1-
1/
#13680000
0/
#13700000
b00000000000000000000000101001101 #
b0000000001001101 %
0'
0(
1+
1/
#13720000
0/
#13740000
b00000000000000000000000101001110 #
b0000000001001110 %
1'
0+
1,
1/
#13760000
0/
#13780000
b00000000000000000000000101001111 #
b0000000001001111 %
0'
1(
1+
1/
#13800000
0/
#13820000
b00000000000000000000000101010000 #
b0000000001010000 %
1'
0+
0,
0-
1/
#13840000
0/
#13860000
b00000000000000000000000101010001 #
b0000000001010001 %
0'
0(
1+
1/
#13880000
0/
#13900000
b00000000000000000000000101010010 #
b0000000001010010 %
1'
0+
1,
1/
#13920000
0/
#13940000
b00000000000000000000000101010011 #
b0000000001010011 %
0'
1(
1+
1/
#13960000
0/
#13980000
b00000000000000000000000101010100 #
b0000000001010100 %
1'
0+
0,
1-
1/
#14000000
0/
#14020000
b00000000000000000000000101010101 #
b0000000001010101 %
0'
0(
1+
1/
#14040000
0/
#14060000
b00000000000000000000000101010110 #
b0000000001010110 %
1'
0+
1,
1/
#14080000
0/
#14100000
b00000000000000000000000101010111 #
b0000000001010111 %
0'
1(
1+
1/
#14120000
0/
#14140000
b00000000000000000000000101011000 #
b0000000001011000 %
1'
0+
0,
0-
1/
#14160000
0/
#14180000
b00000000000000000000000101011001 #
b0000000001011001 %
0'
0(
1+
1/
#14200000
0/
#14220000
b00000000000000000000000101011010 #
b0000000001011010 %
1'
0+
1,
1/
#14240000
0/
#14260000
b00000000000000000000000101011011 #
b0000000001011011 %
0'
1(
1+
1/
#14280000
0/
#14300000
b00000000000000000000000101011100 #
b0000000001011100 %
1'
0+
0,
1-
1/
#14320000
0/
