iverilog/soc_tb.vcd
$date
	Sun Dec 14 18:48:35 2025
$end
$version
	Icarus Verilog
$end
$timescale
	1ps
$end
$scope module soc_tb $end
$var real 1 ! CLK_PERIOD $end
$var reg 1 " clk $end
$var reg 3 # ip_sel [2:0] $end
$var reg 1 $ rst_n $end
$scope module u_asic_top $end
$var wire 1 % clk_int $end
$var wire 1 " clk_pad $end
$var wire 82 & io_pad_i [81:0] $end
$var wire 1 ' rst_int $end
$var wire 1 ( rst_n_int $end
$var wire 1 $ rst_n_pad $end
$var wire 1 ) s_ysyx_core_irq $end
$var wire 1 * s_ysyx_core_irq_default $end
$var wire 2 + s_ysyx_core_sel [1:0] $end
$var wire 2 , s_ysyx_core_sel_default [1:0] $end
$var wire 1 - s_ysyx_spi_miso $end
$var wire 1 . s_ysyx_spi_miso_default $end
$var wire 1 / s_ysyx_uart0_rx $end
$var wire 1 0 s_ysyx_uart0_rx_default $end
$var wire 1 1 test_mode_o $end
$var wire 1 2 soc_uart_tx_irq $end
$var wire 1 3 soc_uart_tx $end
$var wire 1 4 soc_uart_rx_irq $end
$var wire 1 5 soc_uart_rx $end
$var wire 1 6 soc_trap $end
$var wire 1 7 soc_psram_spi_sio3_out $end
$var wire 1 8 soc_psram_spi_sio3_oe $end
$var wire 1 9 soc_psram_spi_sio3_in $end
$var wire 1 : soc_psram_spi_sio2_out $end
$var wire 1 ; soc_psram_spi_sio2_oe $end
$var wire 1 < soc_psram_spi_sio2_in $end
$var wire 1 = soc_psram_spi_mosi $end
$var wire 1 > soc_psram_spi_miso $end
$var wire 1 ? soc_psram_spi_cs $end
$var wire 1 @ soc_psram_spi_clk $end
$var wire 1 A soc_lcd_spi_rst $end
$var wire 1 B soc_lcd_spi_mosi $end
$var wire 1 C soc_lcd_spi_dc $end
$var wire 1 D soc_lcd_spi_cs $end
$var wire 1 E soc_lcd_spi_clk $end
$var wire 1 F soc_lcd_backlight $end
$var wire 16 G soc_gpio_out [15:0] $end
$var wire 16 H soc_gpio_in [15:0] $end
$var wire 1 I soc_flash_spi_mosi $end
$var wire 1 J soc_flash_spi_miso $end
$var wire 1 K soc_flash_spi_cs $end
$var wire 1 L soc_flash_spi_clk $end
$var wire 1 M soc_compact_irq $end
$var wire 1 N soc_bitnet_irq $end
$var wire 1 O s_ysyx_uart0_rx_pad $end
$var wire 1 P s_ysyx_spi_miso_pad $end
$var wire 2 Q s_ysyx_core_sel_pad [1:0] $end
$var wire 1 R s_ysyx_core_irq_pad $end
$var reg 82 S io_pad_o [81:0] $end
$var reg 82 T io_pad_oe [81:0] $end
$scope module u_simple_edge_ai_soc $end
$var wire 1 % clock $end
$var wire 1 J io_flash_spi_miso $end
$var wire 16 U io_gpio_in [15:0] $end
$var wire 1 D io_lcd_spi_cs $end
$var wire 1 A io_lcd_spi_rst $end
$var wire 1 > io_psram_spi_miso $end
$var wire 1 < io_psram_spi_sio2_in $end
$var wire 1 9 io_psram_spi_sio3_in $end
$var wire 1 5 io_uart_rx $end
$var wire 1 4 io_uart_rx_irq $end
$var wire 1 2 io_uart_tx_irq $end
$var wire 1 ' reset $end
$var wire 1 3 io_uart_tx $end
$var wire 1 6 io_trap $end
$var wire 1 7 io_psram_spi_sio3_out $end
$var wire 1 8 io_psram_spi_sio3_oe $end
$var wire 1 : io_psram_spi_sio2_out $end
$var wire 1 ; io_psram_spi_sio2_oe $end
$var wire 1 = io_psram_spi_mosi $end
$var wire 1 ? io_psram_spi_cs $end
$var wire 1 @ io_psram_spi_clk $end
$var wire 1 B io_lcd_spi_mosi $end
$var wire 1 C io_lcd_spi_dc $end
$var wire 1 E io_lcd_spi_clk $end
$var wire 1 F io_lcd_backlight $end
$var wire 16 V io_gpio_out [15:0] $end
$var wire 1 I io_flash_spi_mosi $end
$var wire 1 K io_flash_spi_cs $end
$var wire 1 L io_flash_spi_clk $end
$var wire 1 M io_compact_irq $end
$var wire 1 N io_bitnet_irq $end
$var reg 3 W bitnet_accel_state [2:0] $end
$var reg 32 X bitnet_result [31:0] $end
$var reg 3 Y compact_accel_state [2:0] $end
$var reg 32 Z compact_result [31:0] $end
$var reg 32 [ cpu_instruction [31:0] $end
$var reg 32 \ cpu_mem_addr [31:0] $end
$var reg 32 ] cpu_mem_rdata [31:0] $end
$var reg 1 ^ cpu_mem_valid $end
$var reg 32 _ cpu_mem_wdata [31:0] $end
$var reg 32 ` cpu_pc [31:0] $end
$var reg 32 a cpu_reg_data [31:0] $end
$var reg 32 b gpio_input_reg [31:0] $end
$var reg 32 c gpio_output_reg [31:0] $end
$var reg 4 d gpio_update_div [3:0] $end
$var reg 1 e spi_busy $end
$var reg 8 f spi_clk_div [7:0] $end
$var reg 32 g spi_control_reg [31:0] $end
$var reg 32 h spi_data_reg [31:0] $end
$var reg 16 i uart_clk_div [15:0] $end
$var reg 32 j uart_rx_data [31:0] $end
$var reg 1 k uart_rx_ready $end
$var reg 32 l uart_tx_data [31:0] $end
$var reg 1 m uart_tx_valid $end
$upscope $end
$upscope $end
$scope begin $unm_blk_44 $end
$var reg 32 n vcd_depth [31:0] $end
$upscope $end
$scope task sim_reset $end
$var integer 32 o delay [31:0] $end
$upscope $end
$upscope $end
$enddefinitions $end
$comment Show the parameter values. $end
$dumpall
r40 !
$end
#0
$dumpvars
b1100100 o
bx n
xm
bx l
xk
bx j
bx i
bx h
bx g
bx f
xe
bx d
bx c
bx b
bx a
bx `
bx _
x^
bx ]
bx \
bx [
bx Z
bx Y
bx X
bx W
bx V
b0 U
b0x0x0001111100011111111111111110000000011111110 T
b0x0x00xxxxxx000xxxxxxxxxxxxxxxx00000000x0xxxxx0 S
0R
b0 Q
0P
0O
xN
xM
xL
xK
0J
xI
b0 H
bx G
xF
xE
xD
xC
xB
0A
x@
x?
0>
x=
0<
x;
x:
09
x8
x7
x6
05
x4
x3
x2
01
00
0/
0.
0-
b0 ,
b0 +
0*
0)
0(
1'
b0 &
0%
0$
b1 #
0"
$end
#20000
03
b0 G
b0 V
0F
0E
0L
0@
b1111100011111111111111110000000011111110 T
b0 S
0B
0I
0=
0:
07
0C
0K
0?
0;
08
b0 ]
b0 _
b0 \
0^
b0 a
b10011 [
06
b0 `
b0 i
04
0k
02
0m
b0 j
b0 l
b0 d
b0 b
b0 c
b0 f
0D
0e
b0 h
b0 g
b0 Z
0M
b0 Y
b0 X
0N
b0 W
1%
1"
#40000
0%
0"
#60000
1%
1"
#80000
0%
0"
#100000
1%
1"
#120000
0%
0"
#140000
1%
1"
#160000
0%
0"
#180000
1%
1"
#200000
0%
0"
#220000
1%
1"
#240000
0%
0"
#260000
1%
1"
#280000
0%
0"
#300000
1%
1"
#320000
0%
0"
#340000
1%
1"
#360000
0%
0"
#380000
1%
1"
#400000
0%
0"
#420000
1%
1"
#440000
0%
0"
#460000
1%
1"
#480000
0%
0"
#500000
1%
1"
#520000
0%
0"
#540000
1%
1"
#560000
0%
0"
#580000
1%
1"
#600000
0%
0"
#620000
1%
1"
#640000
0%
0"
#660000
1%
1"
#680000
0%
0"
#700000
1%
1"
#720000
0%
0"
#740000
1%
1"
#760000
0%
0"
#780000
1%
1"
#800000
0%
0"
#820000
1%
1"
#840000
0%
0"
#860000
1%
1"
#880000
0%
0"
#900000
1%
1"
#920000
0%
0"
#940000
1%
1"
#960000
0%
0"
#980000
1%
1"
#1000000
0%
0"
#1020000
1%
1"
#1040000
0%
0"
#1060000
1%
1"
#1080000
0%
0"
#1100000
1%
1"
#1120000
0%
0"
#1140000
1%
1"
#1160000
0%
0"
#1180000
1%
1"
#1200000
0%
0"
#1220000
1%
1"
#1240000
0%
0"
#1260000
1%
1"
#1280000
0%
0"
#1300000
1%
1"
#1320000
0%
0"
#1340000
1%
1"
#1360000
0%
0"
#1380000
1%
1"
#1400000
0%
0"
#1420000
1%
1"
#1440000
0%
0"
#1460000
1%
1"
#1480000
0%
0"
#1500000
1%
1"
#1520000
0%
0"
#1540000
1%
1"
#1560000
0%
0"
#1580000
1%
1"
#1600000
0%
0"
#1620000
1%
1"
#1640000
0%
0"
#1660000
1%
1"
#1680000
0%
0"
#1700000
1%
1"
#1720000
0%
0"
#1740000
1%
1"
#1760000
0%
0"
#1780000
1%
1"
#1800000
0%
0"
#1820000
1%
1"
#1840000
0%
0"
#1860000
1%
1"
#1880000
0%
0"
#1900000
1%
1"
#1920000
0%
0"
#1940000
1%
1"
#1960000
0%
0"
#1980000
1%
1"
#2000000
0%
0"
#2020000
1%
1"
#2040000
0%
0"
#2060000
1%
1"
#2080000
0%
0"
#2100000
1%
1"
#2120000
0%
0"
#2140000
1%
1"
#2160000
0%
0"
#2180000
1%
1"
#2200000
0%
0"
#2220000
1%
1"
#2240000
0%
0"
#2260000
1%
1"
#2280000
0%
0"
#2300000
1%
1"
#2320000
0%
0"
#2340000
1%
1"
#2360000
0%
0"
#2380000
1%
1"
#2400000
0%
0"
#2420000
1%
1"
#2440000
0%
0"
#2460000
1%
1"
#2480000
0%
0"
#2500000
1%
1"
#2520000
0%
0"
#2540000
1%
1"
#2560000
0%
0"
#2580000
1%
1"
#2600000
0%
0"
#2620000
1%
1"
#2640000
0%
0"
#2660000
1%
1"
#2680000
0%
0"
#2700000
1%
1"
#2720000
0%
0"
#2740000
1%
1"
#2760000
0%
0"
#2780000
1%
1"
#2800000
0%
0"
#2820000
1%
1"
#2840000
0%
0"
#2860000
1%
1"
#2880000
0%
0"
#2900000
1%
1"
#2920000
0%
0"
#2940000
1%
1"
#2960000
0%
0"
#2980000
1%
1"
#3000000
0%
0"
#3020000
1%
1"
#3040000
0%
0"
#3060000
1%
1"
#3080000
0%
0"
#3100000
1%
1"
#3120000
0%
0"
#3140000
1%
1"
#3160000
0%
0"
#3180000
1%
1"
#3200000
0%
0"
#3220000
1%
1"
#3240000
0%
0"
#3260000
1%
1"
#3280000
0%
0"
#3300000
1%
1"
#3320000
0%
0"
#3340000
1%
1"
#3360000
0%
0"
#3380000
1%
1"
#3400000
0%
0"
#3420000
1%
1"
#3440000
0%
0"
#3460000
1%
1"
#3480000
0%
0"
#3500000
1%
1"
#3520000
0%
0"
#3540000
1%
1"
#3560000
0%
0"
#3580000
1%
1"
#3600000
0%
0"
#3620000
1%
1"
#3640000
0%
0"
#3660000
1%
1"
#3680000
0%
0"
#3700000
1%
1"
#3720000
0%
0"
#3740000
1%
1"
#3760000
0%
0"
#3780000
1%
1"
#3800000
0%
0"
#3820000
1%
1"
#3840000
0%
0"
#3860000
1%
1"
#3880000
0%
0"
#3900000
1%
1"
#3920000
0%
0"
#3940000
1%
1"
#3960000
0%
0"
#3980000
1%
1"
#3981000
b1000000 S
b1111100011111111111111110000000011111110 T
1A
0'
1(
1$
#4000000
0%
0"
#4020000
b1111100011111111111111110000000011111110 T
b100000000000000000000000000000001000000 S
1@
1^
b1 a
b100 `
b1 i
b1 d
b1 f
1%
1"
#4040000
0%
0"
#4060000
b1111100011111111111111110000000011111110 T
b100000000000000000000000000001000000 S
1L
0@
b10 f
b10 d
b10 i
b1 _
b10000000000000000000000000100 \
0^
b10 a
b100000000000000000000010011 [
b1000 `
1%
1"
#4080000
0%
0"
#4100000
b1111100011111111111111110000000011111110 T
b100100000000000000000000000000001000000 S
1@
1^
b11 a
b1000000000000000000000010011 [
b1100 `
b11 i
b11 d
b11 f
b1 Y
1%
1"
#4120000
0%
0"
#4140000
b1111100011111111111111110000000011111110 T
b1000100 S
1E
0L
0@
b10 Y
b100 f
b100 d
b100 i
b11 _
b10000000000000000000000001100 \
0^
b100 a
b1100000000000000000000010011 [
b10000 `
1%
1"
#4160000
0%
0"
#4180000
b1111100011111111111111110000000011111110 T
b100000000000000000000000000000001000100 S
1@
1^
b101 a
b10000000000000000000000010011 [
b10100 `
b101 i
b101 d
b101 f
b11 Y
1%
1"
#4200000
0%
0"
#4220000
b1111100011111111111111110000000011111110 T
b100000000000000000000000000001000100 S
1L
0@
bx ]
1M
b100 Y
bx Z
b110 f
b110 d
b110 i
b101 _
b10000000000000000000000010100 \
0^
b110 a
b10100000000000000000000010011 [
b11000 `
1%
1"
#4240000
0%
0"
#4260000
b1111100011111111111111110000000011111110 T
b100100000000000000000000000000001000100 S
1@
1^
b111 a
b11000000000000000000000010011 [
b11100 `
b111 i
b111 d
b111 f
0M
b0 Y
1%
1"
#4280000
0%
0"
#4300000
b1111100011111111111111110000000011111110 T
b1000000 S
0E
0L
0@
bx ]
b1 Y
b1000 f
b1000 d
b1000 i
b111 _
b10000000000000000000000011100 \
0^
b1000 a
b11100000000000000000000010011 [
b100000 `
1%
1"
#4320000
0%
0"
#4340000
b1111100011111111111111110000000011111110 T
b100000000000000000000000000000001000000 S
1@
1^
b1001 a
b100000000000000000000000010011 [
b100100 `
b1001 i
b1001 d
b1001 f
b10 Y
1%
1"
#4360000
0%
0"
#4380000
b1111100011111111111111110000000011111110 T
b100000000000000000000000000001000000 S
1L
0@
bx ]
b11 Y
b1010 f
b1010 d
b1010 i
b1001 _
b10000000000000000000000100100 \
0^
b1010 a
b100100000000000000000000010011 [
b101000 `
1%
1"
#4400000
0%
0"
#4420000
b1111100011111111111111110000000011111110 T
b100100000000000000000000000000001000000 S
1@
1^
b1011 a
b101000000000000000000000010011 [
b101100 `
b1011 i
b1011 d
b1011 f
1M
b100 Y
1%
1"
#4440000
0%
0"
#4460000
b1111100011111111111111110000000011111110 T
b1000100 S
1E
0L
0@
bx ]
0M
b0 Y
b1100 f
b1100 d
b1100 i
b1011 _
b10000000000000000000000101100 \
0^
b1100 a
b101100000000000000000000010011 [
b110000 `
1%
1"
#4480000
0%
0"
#4500000
b1111100011111111111111110000000011111110 T
b100000000000000000000000000000001000100 S
1@
1^
b1101 a
b110000000000000000000000010011 [
b110100 `
b1101 i
b1101 d
b1101 f
b1 Y
1%
1"
#4520000
0%
0"
#4540000
b1111100011111111111111110000000011111110 T
b100000000000000000000000000001000100 S
1L
0@
bx ]
b10 Y
b1110 f
b1110 d
b1110 i
b1101 _
b10000000000000000000000110100 \
0^
b1110 a
b110100000000000000000000010011 [
b111000 `
1%
1"
#4560000
0%
0"
#4580000
b1111100011111111111111110000000011111110 T
b100100000000000000000000000000001000100 S
1@
1^
b1111 a
b111000000000000000000000010011 [
b111100 `
b1111 i
b1111 d
b1111 f
b11 Y
1%
1"
#4600000
0%
0"
#4620000
b1111100011111111111111110000000011111110 T
b10000000001000000 S
0E
0L
0@
b1 G
b1 V
bx ]
1M
b100 Y
b10000 f
b1 c
b0 d
b10000 i
b1111 _
b10000000000000000000000111100 \
0^
b10000 a
b111100000000000000000000010011 [
b1000000 `
1%
1"
#4640000
0%
0"
#4660000
b1111100011111111111111110000000011111110 T
b100000000000000000000010000000001000000 S
1@
1^
b10001 a
b1000000000000000000000000010011 [
b1000100 `
b10001 i
b1 d
b10001 f
0M
b0 Y
1%
1"
#4680000
0%
0"
#4700000
b1111100011111111111111110000000011111110 T
b100000000000000000010000000001000000 S
1L
0@
bx ]
b1 Y
b10010 f
b10 d
b10010 i
b10001 _
b10000000000000000000001000100 \
0^
b10010 a
b1000100000000000000000000010011 [
b1001000 `
1%
1"
#4720000
0%
0"
#4740000
b1111100011111111111111110000000011111110 T
b100100000000000000000010000000001000000 S
1@
1^
b10011 a
b1001000000000000000000000010011 [
b1001100 `
b10011 i
b11 d
b10011 f
b10 Y
1%
1"
#4760000
0%
0"
#4780000
b1111100011111111111111110000000011111110 T
b10000000001000100 S
1E
0L
0@
bx ]
b11 Y
b10100 f
b100 d
b10100 i
b10011 _
b10000000000000000000001001100 \
0^
b10100 a
b1001100000000000000000000010011 [
b1010000 `
1%
1"
#4800000
0%
0"
#4820000
b1111100011111111111111110000000011111110 T
b100000000000000000000010000000001000100 S
1@
1^
b10101 a
b1010000000000000000000000010011 [
b1010100 `
b10101 i
b101 d
b10101 f
1M
b100 Y
1%
1"
#4840000
0%
0"
#4860000
b1111100011111111111111110000000011111110 T
b100000000000000000010000000001000100 S
1L
0@
bx ]
0M
b0 Y
b10110 f
b110 d
b10110 i
b10101 _
b10000000000000000000001010100 \
0^
b10110 a
b1010100000000000000000000010011 [
b1011000 `
1%
1"
#4880000
0%
0"
#4900000
b1111100011111111111111110000000011111110 T
b100100000000000000000010000000001000100 S
1@
1^
b10111 a
b1011000000000000000000000010011 [
b1011100 `
b10111 i
b111 d
b10111 f
b1 Y
1%
1"
#4920000
0%
0"
#4940000
b1111100011111111111111110000000011111110 T
b10000000001000000 S
0E
0L
0@
bx ]
b10 Y
b11000 f
b1000 d
b11000 i
b10111 _
b10000000000000000000001011100 \
0^
b11000 a
b1011100000000000000000000010011 [
b1100000 `
1%
1"
#4960000
0%
0"
#4980000
b1111100011111111111111110000000011111110 T
b100000000000000000000010000000001000000 S
1@
1^
b11001 a
b1100000000000000000000000010011 [
b1100100 `
b11001 i
b1001 d
b11001 f
b11 Y
1%
1"
#5000000
0%
0"
#5020000
b1111100011111111111111110000000011111110 T
b100000000000000000010000000001000000 S
1L
0@
bx ]
1M
b100 Y
b11010 f
b1010 d
b11010 i
b11001 _
b10000000000000000000001100100 \
0^
b11010 a
b1100100000000000000000000010011 [
b1101000 `
1%
1"
#5040000
0%
0"
#5060000
b1111100011111111111111110000000011111110 T
b100100000000000000000010000000001000000 S
1@
1^
b11011 a
b1101000000000000000000000010011 [
b1101100 `
b11011 i
b1011 d
b11011 f
0M
b0 Y
1%
1"
#5080000
0%
0"
#5100000
b1111100011111111111111110000000011111110 T
b10000000001000100 S
1E
0L
0@
bx ]
b1 Y
b11100 f
b1100 d
b11100 i
b11011 _
b10000000000000000000001101100 \
0^
b11100 a
b1101100000000000000000000010011 [
b1110000 `
1%
1"
#5120000
0%
0"
#5140000
b1111100011111111111111110000000011111110 T
b100000000000000000000010000000001000100 S
1@
1^
b11101 a
b1110000000000000000000000010011 [
b1110100 `
b11101 i
b1101 d
b11101 f
b10 Y
1%
1"
#5160000
0%
0"
#5180000
b1111100011111111111111110000000011111110 T
b100000000000000000010000000001000100 S
1L
0@
bx ]
b11 Y
b11110 f
b1110 d
b11110 i
b11101 _
b10000000000000000000001110100 \
0^
b11110 a
b1110100000000000000000000010011 [
b1111000 `
1%
1"
#5200000
0%
0"
#5220000
b1111100011111111111111110000000011111110 T
b100100000000000000000010000000001000100 S
1@
1^
b11111 a
b1111000000000000000000000010011 [
b1111100 `
b11111 i
b1111 d
b11111 f
1M
b100 Y
1%
1"
#5240000
0%
0"
#5260000
b1111100011111111111111110000000011111110 T
b100000000001000000 S
0E
0L
0@
b10 G
b10 V
bx ]
0M
b0 Y
b100000 f
b10 c
b0 d
b100000 i
b11111 _
b10000000000000000000001111100 \
0^
b100000 a
b1111100000000000000000000010011 [
b10000000 `
1%
1"
#5280000
0%
0"
#5300000
b1111100011111111111111110000000011111110 T
b100000000000000000000100000000001000000 S
1@
1^
b100001 a
b10000000000000000000000000010011 [
b10000100 `
b100001 i
b1 d
b100001 f
b1 Y
1%
1"
#5320000
0%
0"
#5340000
b1111100011111111111111110000000011111110 T
b100000000000000000100000000001000000 S
1L
0@
bx ]
b10 Y
b100010 f
b10 d
b100010 i
b100001 _
b10000000000000000000010000100 \
0^
b100010 a
b10000100000000000000000000010011 [
b10001000 `
1%
1"
#5360000
0%
0"
#5380000
b1111100011111111111111110000000011111110 T
b100100000000000000000100000000001000000 S
1@
1^
b100011 a
b10001000000000000000000000010011 [
b10001100 `
b100011 i
b11 d
b100011 f
b11 Y
1%
1"
#5400000
0%
0"
#5420000
b1111100011111111111111110000000011111110 T
b100000000001000100 S
1E
0L
0@
bx ]
1M
b100 Y
b100100 f
b100 d
b100100 i
b100011 _
b10000000000000000000010001100 \
0^
b100100 a
b10001100000000000000000000010011 [
b10010000 `
1%
1"
#5440000
0%
0"
#5460000
b1111100011111111111111110000000011111110 T
b100000000000000000000100000000001000100 S
1@
1^
b100101 a
b10010000000000000000000000010011 [
b10010100 `
b100101 i
b101 d
b100101 f
0M
b0 Y
1%
1"
#5480000
0%
0"
#5500000
b1111100011111111111111110000000011111110 T
b100000000000000000100000000001000100 S
1L
0@
bx ]
b1 Y
b100110 f
b110 d
b100110 i
b100101 _
b10000000000000000000010010100 \
0^
b100110 a
b10010100000000000000000000010011 [
b10011000 `
1%
1"
#5520000
0%
0"
#5540000
b1111100011111111111111110000000011111110 T
b100100000000000000000100000000001000100 S
1@
1^
b100111 a
b10011000000000000000000000010011 [
b10011100 `
b100111 i
b111 d
b100111 f
b10 Y
1%
1"
#5560000
0%
0"
#5580000
b1111100011111111111111110000000011111110 T
b100000000001000000 S
0E
0L
0@
bx ]
b11 Y
b101000 f
b1000 d
b101000 i
b100111 _
b10000000000000000000010011100 \
0^
b101000 a
b10011100000000000000000000010011 [
b10100000 `
1%
1"
#5600000
0%
0"
#5620000
b1111100011111111111111110000000011111110 T
b100000000000000000000100000000001000000 S
1@
1^
b101001 a
b10100000000000000000000000010011 [
b10100100 `
b101001 i
b1001 d
b101001 f
1M
b100 Y
1%
1"
#5640000
0%
0"
#5660000
b1111100011111111111111110000000011111110 T
b100000000000000000100000000001000000 S
1L
0@
bx ]
0M
b0 Y
b101010 f
b1010 d
b101010 i
b101001 _
b10000000000000000000010100100 \
0^
b101010 a
b10100100000000000000000000010011 [
b10101000 `
1%
1"
#5680000
0%
0"
#5700000
b1111100011111111111111110000000011111110 T
b100100000000000000000100000000001000000 S
1@
1^
b101011 a
b10101000000000000000000000010011 [
b10101100 `
b101011 i
b1011 d
b101011 f
b1 Y
1%
1"
#5720000
0%
0"
#5740000
b1111100011111111111111110000000011111110 T
b100000000001000100 S
1E
0L
0@
bx ]
b10 Y
b101100 f
b1100 d
b101100 i
b101011 _
b10000000000000000000010101100 \
0^
b101100 a
b10101100000000000000000000010011 [
b10110000 `
1%
1"
#5760000
0%
0"
#5780000
b1111100011111111111111110000000011111110 T
b100000000000000000000100000000001000100 S
1@
1^
b101101 a
b10110000000000000000000000010011 [
b10110100 `
b101101 i
b1101 d
b101101 f
b11 Y
1%
1"
#5800000
0%
0"
#5820000
b1111100011111111111111110000000011111110 T
b100000000000000000100000000001000100 S
1L
0@
bx ]
1M
b100 Y
b101110 f
b1110 d
b101110 i
b101101 _
b10000000000000000000010110100 \
0^
b101110 a
b10110100000000000000000000010011 [
b10111000 `
1%
1"
#5840000
0%
0"
#5860000
b1111100011111111111111110000000011111110 T
b100100000000000000000100000000001000100 S
1@
1^
b101111 a
b10111000000000000000000000010011 [
b10111100 `
b101111 i
b1111 d
b101111 f
0M
b0 Y
1%
1"
#5880000
0%
0"
#5900000
b1111100011111111111111110000000011111110 T
b110000000001000000 S
0E
0L
0@
b11 G
b11 V
bx ]
b1 Y
b110000 f
b11 c
b0 d
b110000 i
b101111 _
b10000000000000000000010111100 \
0^
b110000 a
b10111100000000000000000000010011 [
b11000000 `
1%
1"
#5920000
0%
0"
#5940000
b1111100011111111111111110000000011111110 T
b100000000000000000000110000000001000000 S
1@
1^
b110001 a
b11000000000000000000000000010011 [
b11000100 `
b110001 i
b1 d
b110001 f
b10 Y
1%
1"
#5960000
0%
0"
#5980000
b1111100011111111111111110000000011111110 T
b100000000000000000110000000001000000 S
1L
0@
bx ]
b11 Y
b110010 f
b10 d
b110010 i
b110001 _
b10000000000000000000011000100 \
0^
b110010 a
b11000100000000000000000000010011 [
b11001000 `
1%
1"
#6000000
0%
0"
#6020000
b1111100011111111111111110000000011111110 T
b100100000000000000000110000000001000000 S
1@
1^
b110011 a
b11001000000000000000000000010011 [
b11001100 `
b110011 i
b11 d
b110011 f
1M
b100 Y
1%
1"
#6040000
0%
0"
#6060000
b1111100011111111111111110000000011111110 T
b110000000001000100 S
1E
0L
0@
bx ]
0M
b0 Y
b110100 f
b100 d
b110100 i
b110011 _
b10000000000000000000011001100 \
0^
b110100 a
b11001100000000000000000000010011 [
b11010000 `
1%
1"
#6080000
0%
0"
#6100000
b1111100011111111111111110000000011111110 T
b100000000000000000000110000000001000100 S
1@
1^
b110101 a
b11010000000000000000000000010011 [
b11010100 `
b110101 i
b101 d
b110101 f
b1 Y
1%
1"
#6120000
0%
0"
#6140000
b1111100011111111111111110000000011111110 T
b100000000000000000110000000001000100 S
1L
0@
bx ]
b10 Y
b110110 f
b110 d
b110110 i
b110101 _
b10000000000000000000011010100 \
0^
b110110 a
b11010100000000000000000000010011 [
b11011000 `
1%
1"
#6160000
0%
0"
#6180000
b1111100011111111111111110000000011111110 T
b100100000000000000000110000000001000100 S
1@
1^
b110111 a
b11011000000000000000000000010011 [
b11011100 `
b110111 i
b111 d
b110111 f
b11 Y
1%
1"
#6200000
0%
0"
#6220000
b1111100011111111111111110000000011111110 T
b110000000001000000 S
0E
0L
0@
bx ]
1M
b100 Y
b111000 f
b1000 d
b111000 i
b110111 _
b10000000000000000000011011100 \
0^
b111000 a
b11011100000000000000000000010011 [
b11100000 `
1%
1"
#6240000
0%
0"
#6260000
b1111100011111111111111110000000011111110 T
b100000000000000000000110000000001000000 S
1@
1^
b111001 a
b11100000000000000000000000010011 [
b11100100 `
b111001 i
b1001 d
b111001 f
0M
b0 Y
1%
1"
#6280000
0%
0"
#6300000
b1111100011111111111111110000000011111110 T
b100000000000000000110000000001000000 S
1L
0@
bx ]
b1 Y
b111010 f
b1010 d
b111010 i
b111001 _
b10000000000000000000011100100 \
0^
b111010 a
b11100100000000000000000000010011 [
b11101000 `
1%
1"
#6320000
0%
0"
#6340000
b1111100011111111111111110000000011111110 T
b100100000000000000000110000000001000000 S
1@
1^
b111011 a
b11101000000000000000000000010011 [
b11101100 `
b111011 i
b1011 d
b111011 f
b10 Y
1%
1"
#6360000
0%
0"
#6380000
b1111100011111111111111110000000011111110 T
b110000000001000100 S
1E
0L
0@
bx ]
b11 Y
b111100 f
b1100 d
b111100 i
b111011 _
b10000000000000000000011101100 \
0^
b111100 a
b11101100000000000000000000010011 [
b11110000 `
1%
1"
#6400000
0%
0"
#6420000
b1111100011111111111111110000000011111110 T
b100000000000000000000110000000001000100 S
1@
1^
b111101 a
b11110000000000000000000000010011 [
b11110100 `
b111101 i
b1101 d
b111101 f
1M
b100 Y
1%
1"
#6440000
0%
0"
#6460000
b1111100011111111111111110000000011111110 T
b100000000000000000110000000001000100 S
1L
0@
bx ]
0M
b0 Y
b111110 f
b1110 d
b111110 i
b111101 _
b10000000000000000000011110100 \
0^
b111110 a
b11110100000000000000000000010011 [
b11111000 `
1%
1"
#6480000
0%
0"
#6500000
b1111100011111111111111110000000011111110 T
b100100000000000000000110000000001000100 S
1@
1^
b111111 a
b11111000000000000000000000010011 [
b11111100 `
b111111 i
b1111 d
b111111 f
b1 Y
1%
1"
#6520000
0%
0"
#6540000
b1111100011111111111111110000000011111110 T
b1000000000001000000 S
0E
0L
0@
b100 G
b100 V
bx ]
b10 Y
b1000000 f
b100 c
b0 d
b1000000 i
b111111 _
b10000000000000000000011111100 \
0^
b1000000 a
b11111100000000000000000000010011 [
b100000000 `
1%
1"
#6560000
0%
0"
#6580000
b1111100011111111111111110000000011111110 T
b100000000000000000001000000000001000000 S
1@
1^
b1000001 a
b10011 [
b100000100 `
b1000001 i
b1 d
b1000001 f
b11 Y
1%
1"
#6600000
0%
0"
#6620000
b1111100011111111111111110000000011111110 T
b100000000000000001000000000001000000 S
1L
0@
bx ]
1M
b100 Y
b1000010 f
b10 d
b1000010 i
b1000001 _
b10000000000000000000100000100 \
0^
b1000010 a
b100000000000000000000010011 [
b100001000 `
1%
1"
#6640000
0%
0"
#6660000
b1111100011111111111111110000000011111110 T
b100100000000000000001000000000001000000 S
1@
1^
b1000011 a
b1000000000000000000000010011 [
b100001100 `
b1000011 i
b11 d
b1000011 f
0M
b0 Y
1%
1"
#6680000
0%
0"
#6700000
b1111100011111111111111110000000011111110 T
b1000000000001000100 S
1E
0L
0@
bx ]
b1 Y
b1000100 f
b100 d
b1000100 i
b1000011 _
b10000000000000000000100001100 \
0^
b1000100 a
b1100000000000000000000010011 [
b100010000 `
1%
1"
#6720000
0%
0"
#6740000
b1111100011111111111111110000000011111110 T
b100000000000000000001000000000001000100 S
1@
1^
b1000101 a
b10000000000000000000000010011 [
b100010100 `
b1000101 i
b101 d
b1000101 f
b10 Y
1%
1"
#6760000
0%
0"
#6780000
b1111100011111111111111110000000011111110 T
b100000000000000001000000000001000100 S
1L
0@
bx ]
b11 Y
b1000110 f
b110 d
b1000110 i
b1000101 _
b10000000000000000000100010100 \
0^
b1000110 a
b10100000000000000000000010011 [
b100011000 `
1%
1"
#6800000
0%
0"
#6820000
b1111100011111111111111110000000011111110 T
b100100000000000000001000000000001000100 S
1@
1^
b1000111 a
b11000000000000000000000010011 [
b100011100 `
b1000111 i
b111 d
b1000111 f
1M
b100 Y
1%
1"
#6840000
0%
0"
#6860000
b1111100011111111111111110000000011111110 T
b1000000000001000000 S
0E
0L
0@
bx ]
0M
b0 Y
b1001000 f
b1000 d
b1001000 i
b1000111 _
b10000000000000000000100011100 \
0^
b1001000 a
b11100000000000000000000010011 [
b100100000 `
1%
1"
#6880000
0%
0"
#6900000
b1111100011111111111111110000000011111110 T
b100000000000000000001000000000001000000 S
1@
1^
b1001001 a
b100000000000000000000000010011 [
b100100100 `
b1001001 i
b1001 d
b1001001 f
b1 Y
1%
1"
#6920000
0%
0"
#6940000
b1111100011111111111111110000000011111110 T
b100000000000000001000000000001000000 S
1L
0@
bx ]
b10 Y
b1001010 f
b1010 d
b1001010 i
b1001001 _
b10000000000000000000100100100 \
0^
b1001010 a
b100100000000000000000000010011 [
b100101000 `
1%
1"
#6960000
0%
0"
#6980000
b1111100011111111111111110000000011111110 T
b100100000000000000001000000000001000000 S
1@
1^
b1001011 a
b101000000000000000000000010011 [
b100101100 `
b1001011 i
b1011 d
b1001011 f
b11 Y
1%
1"
